Nowcasting with Chain-Ladder Method • nowcastr
…
Requirements

Dataset with at least 2 date columns and a value column. The dataset can also have multiple group-by columns for batch processing.

Note that the delays (difference between the 2 dates) should have constant intervals, i.e., multiples of 1 day or 7 days.

Usage

The core functionality is provided by the nowcast_cl() function.

Data

print(nowcast_demo)

# # A tibble: 1,624 × 4
#     value date_occurrence date_report group        
#     <dbl> <date>         <date>      <chr>
#  1 251563 2024-12-16     2025-05-26  Syndromic ARI
#  2 219818 2024-12-23     2025-05-26  Syndromic ARI
#  3 219815 2024-12-23     2025-06-02  Syndromic ARI
#  4 253451 2024-12-30     2025-05-26  Syndromic ARI
#  5 253454 2024-12-30     2025-06-09  Syndromic ARI
#  6 311660 2025-01-06     2025-05-26  Syndromic ARI
#  7 311666 2025-01-06     2025-06-02  Syndromic ARI
#  8 311654 2025-01-06     2025-06-09  Syndromic ARI
#  9 311657 2025-01-06     2025-06-16  Syndromic ARI
# 10 313798 2025-01-13     2025-05-26  Syndromic ARI
# # ℹ 1,614 more rows
…
