…
generate_test_data() %>%
  fill_future_reported_values(
    col_date_occurrence = date_occurrence,
    col_date_reporting = date_report,
    col_value = value,
    group_cols = NULL
  )
#> # A tibble: 126 × 4
#>    date_occurrence date_report delay value
#>    <date>          <date>      <int> <dbl>
#>  1 2025-02-09      2025-02-09      0  50  
#>  2 2025-02-08      2025-02-09      1  79.7
#>  3 2025-02-08      2025-02-08      0  50  
#>  4 2025-02-07      2025-02-09      2  91.7
#>  5 2025-02-07      2025-02-08      1  79.7
#>  6 2025-02-07      2025-02-07      0  50  
#>  7 2025-02-06      2025-02-09      3  96.6
#>  8 2025-02-06      2025-02-08      2  91.7
#>  9 2025-02-06      2025-02-07      1  79.7
#> 10 2025-02-06      2025-02-06      0  50  
#> # ℹ 116 more rows
```
