Evaluate accuracy • nowcastr
…
This will return an S7 object with 2 slots for 2 datasets.

nc_eval_obj@detail contains detailed results, and

nc_eval_obj@summary is summarised by group_cols and delay.

nc_eval_obj@detail
#> # A tibble: 238 × 12
#>    group cut_date   date_occurrence last_r_date value value_predicted value_true
#>    <chr> <date>     <date>          <date>      <dbl>           <dbl>      <dbl>
#>  1 SARS… 2025-09-08 2025-08-04      2025-09-08     47            87.4        143
#>  2 SARS… 2025-09-08 2025-08-11      2025-09-08     19            50.1        112
#>  3 SARS… 2025-09-15 2025-08-11      2025-09-15     18            31.7        112
#>  4 SARS… 2025-09-08 2025-08-18      2025-09-08     10            46.5        123
#>  5 SARS… 2025-09-15 2025-08-18      2025-09-15     11            26.4        123
#>  6 SARS… 2025-09-22 2025-08-18      2025-09-22     40            84.2        123
#>  7 SARS… 2025-09-08 2025-08-25      2025-09-08      5            58.6        107
#>  8 SARS… 2025-09-15 2025-08-25      2025-09-15      6            23.4        107
#>  9 SARS… 2025-09-22 2025-08-25      2025-09-22     30            98.2        107
#> 10 SARS… 2025-09-29 2025-08-25      2025-09-29     40            98.5        107
#> # ℹ 228 more rows
#> # ℹ 5 more variables: delay <dbl>, SAPE_pred <dbl>, SAPE_obs <dbl>,
#> #   SAPE_improvement <dbl>, isWin <int>
nc_eval_obj@summary
#> # A tibble: 24 × 10
#>    group        delay n_periods n_obs smape_diff_med smape_diff_q1 smape_diff_q3
#>    <chr>        <dbl>     <int> <int>          <dbl>         <dbl>         <dbl>
#>  1 SARS-CoV-2 …     0        10    10        0             0            0       
#>  2 SARS-CoV-2 …     1        10    10        0             0            0.375   
#>  3 SARS-CoV-2 …     2        10    10        0.619         0.417        0.671   
#>  4 SARS-CoV-2 …     3        10    10        0.507         0.289        0.636   
#>  5 SARS-CoV-2 …     4        10    10        0.410         0.222        0.493   
#>  6 SARS-CoV-2 …     5        10    10        0.368         0.190        0.422   
#>  7 SARS-CoV-2 …     0         8     8        0.431         0.420        0.436   
#>  8 SARS-CoV-2 …     1        10    10       -0.0782       -0.100       -0.0399  
#>  9 SARS-CoV-2 …     2        10    10       -0.00756      -0.0177       0.00859 
#> 10 SARS-CoV-2 …     3        10    10       -0.00603      -0.00745      0.000239
#> # ℹ 14 more rows
#> # ℹ 3 more variables: winrate <dbl>, winrate_low <dbl>, winrate_high <dbl>
…
